fp2513
…
# Create the tibble
AL_IM_MW_park_to_state = tibble(
  park_name_total = park_name_total,
  state = state
)

# Separate rows with multiple states
AL_IM_MW_park_to_state = AL_IM_MW_park_to_state %>%
  separate_rows(state, sep = "/")

# Check the result
print(AL_IM_MW_park_to_state)

## # A tibble: 97 × 2
##    park_name_total    state
##    <chr>              <chr>
##  1 Amistad NRA        TX   
##  2 Apostle Islands NL WI   
##  3 Arches NP          UT   
##  4 Arkansas Post NMEM AR   
##  5 Badlands NP        SD   
##  6 Bandelier NM       NM   
##  7 Big Bend NP        TX   
##  8 Big Thicket NPRES  TX   
##  9 Bighorn Canyon NRA MT   
## 10 Bighorn Canyon NRA WY   
## # ℹ 87 more rows
…
# Print the new dataframe
print(AL_IM_MW_traffic_count_stats)

## # A tibble: 21 × 6
##    state min_traffic_count year_of_min_traffic_count max_traffic_count
##    <chr>             <dbl>                     <dbl>             <dbl>
##  1 AK                    0                      1996            243057
##  2 AR                    0                      2007           1277367
##  3 AZ                    0                      1998           2634844
##  4 CO                    0                      2019           5907732
##  5 ID                    0                      1991           1173528
##  6 IN                    0                      1993            263656
##  7 KS                    0                      1998             22655
##  8 MI                    0                      2018            721795
##  9 MN                    0                      2007             34877
## 10 MO                    0                      1991            192735
## # ℹ 11 more rows
## # ℹ 2 more variables: year_of_max_traffic_count <dbl>, difference_min_max <dbl>
…
Plot a plotly for both north east and AL_IM_MW

library(dplyr)

# Merge the two dataframes by adding rows
merged_East_AL_traffic_counts = bind_rows(AL_IM_MW_traffic_count_stats, traffic_count_stats)

# View the result
print(merged_East_AL_traffic_counts)

## # A tibble: 24 × 6
##    state min_traffic_count year_of_min_traffic_count max_traffic_count
##    <chr>             <dbl>                     <dbl>             <dbl>
##  1 AK                    0                      1996            243057
##  2 AR                    0                      2007           1277367
##  3 AZ                    0                      1998           2634844
##  4 CO                    0                      2019           5907732
##  5 ID                    0                      1991           1173528
##  6 IN                    0                      1993            263656
##  7 KS                    0                      1998             22655
##  8 MI                    0                      2018            721795
##  9 MN                    0                      2007             34877
## 10 MO                    0                      1991            192735
## # ℹ 14 more rows
## # ℹ 2 more variables: year_of_max_traffic_count <dbl>, difference_min_max <dbl>
…
# Create the tibble
CAP_PAC_park_to_state = tibble(
  park_name_total = park_name_total,
  state = state
)

# Separate rows with multiple states
CAP_PAC_park_to_state = CAP_PAC_park_to_state %>%
  separate_rows(state, sep = "/")

# Check the result
print(CAP_PAC_park_to_state)

## # A tibble: 64 × 2
##    park_name_total               state
##    <chr>                         <chr>
##  1 Big Hole NB                   MT   
##  2 Cabrillo NM                   CA   
##  3 Catoctin Mountain Park        MD   
##  4 Chesapeake & Ohio Canal NHP   MD   
##  5 Chesapeake & Ohio Canal NHP   WV   
##  6 City of Rocks NRES            ID   
##  7 Crater Lake NP                OR   
##  8 Craters of the Moon NM & PRES ID   
##  9 Death Valley NP               CA   
## 10 Death Valley NP               NV   
## # ℹ 54 more rows
…
library(dplyr)

# Merge the two dataframes by adding rows
merged_East_AL_CAP_traffic_counts = bind_rows(merged_East_AL_traffic_counts, CAP_PAC_traffic_count_stats)

# View the result
print(merged_East_AL_CAP_traffic_counts)

## # A tibble: 37 × 6
##    state min_traffic_count year_of_min_traffic_count max_traffic_count
##    <chr>             <dbl>                     <dbl>             <dbl>
##  1 AK                    0                      1996            243057
##  2 AR                    0                      2007           1277367
##  3 AZ                    0                      1998           2634844
##  4 CO                    0                      2019           5907732
##  5 ID                    0                      1991           1173528
##  6 IN                    0                      1993            263656
##  7 KS                    0                      1998             22655
##  8 MI                    0                      2018            721795
##  9 MN                    0                      2007             34877
## 10 MO                    0                      1991            192735
## # ℹ 27 more rows
## # ℹ 2 more variables: year_of_max_traffic_count <dbl>, difference_min_max <dbl>
…
# Create the tibble
SE_park_to_state = tibble(
  park_name_total = park_name_total,
  state = state
)

# Separate rows with multiple states
SE_park_to_state = SE_park_to_state %>%
  separate_rows(state, sep = "/")

# Check the result
print(SE_park_to_state)

## # A tibble: 56 × 2
##    park_name_total                state
##    <chr>                          <chr>
##  1 Abraham Lincoln Birthplace NHP KY   
##  2 Andersonville NHS              GA   
##  3 Andrew Johnson NHS             TN   
##  4 Big Cypress NPRES              FL   
##  5 Big South Fork NRRA            TN   
##  6 Big South Fork NRRA            KY   
##  7 Biscayne NP                    FL   
##  8 Blue Ridge PKWY                VA   
##  9 Blue Ridge PKWY                NC   
## 10 Camp Nelson NM                 KY   
## # ℹ 46 more rows
…
library(dplyr)

# Merge the two dataframes by adding rows
FULL_merged_traffic_counts = bind_rows(merged_East_AL_CAP_traffic_counts, SE_traffic_count_stats)

# View the result
print(FULL_merged_traffic_counts)

## # A tibble: 47 × 6
##    state min_traffic_count year_of_min_traffic_count max_traffic_count
##    <chr>             <dbl>                     <dbl>             <dbl>
##  1 AK                    0                      1996            243057
##  2 AR                    0                      2007           1277367
##  3 AZ                    0                      1998           2634844
##  4 CO                    0                      2019           5907732
##  5 ID                    0                      1991           1173528
##  6 IN                    0                      1993            263656
##  7 KS                    0                      1998             22655
##  8 MI                    0                      2018            721795
##  9 MN                    0                      2007             34877
## 10 MO                    0                      1991            192735
## # ℹ 37 more rows
## # ℹ 2 more variables: year_of_max_traffic_count <dbl>, difference_min_max <dbl>
…
